------------------------------------------------------------------------
r1042926 | scripty | 2009-10-31 04:13:21 +0000 (Sat, 31 Oct 2009) | 1 line

SVN_SILENT made messages (.desktop file)
------------------------------------------------------------------------
r1043213 | scripty | 2009-11-01 04:09:48 +0000 (Sun, 01 Nov 2009) | 1 line

SVN_SILENT made messages (.desktop file)
------------------------------------------------------------------------
r1046015 | scripty | 2009-11-07 04:20:48 +0000 (Sat, 07 Nov 2009) | 1 line

SVN_SILENT made messages (.desktop file)
------------------------------------------------------------------------
r1051245 | scripty | 2009-11-19 04:16:46 +0000 (Thu, 19 Nov 2009) | 1 line

SVN_SILENT made messages (.desktop file)
------------------------------------------------------------------------
