------------------------------------------------------------------------
r1046186 | chani | 2009-11-07 19:13:39 +0000 (Sat, 07 Nov 2009) | 4 lines

lie a bit and say that it doesn't launch apps
so that it's allowed on the screensaver
BUG: 209285

------------------------------------------------------------------------
r1047361 | scripty | 2009-11-11 04:03:33 +0000 (Wed, 11 Nov 2009) | 1 line

SVN_SILENT made messages (.desktop file)
------------------------------------------------------------------------
