------------------------------------------------------------------------
r1138035 | scripty | 2010-06-15 14:47:15 +1200 (Tue, 15 Jun 2010) | 1 line

SVN_SILENT made messages (.desktop file)
------------------------------------------------------------------------
r1140160 | scripty | 2010-06-20 14:09:15 +1200 (Sun, 20 Jun 2010) | 1 line

SVN_SILENT made messages (.desktop file)
------------------------------------------------------------------------
r1141606 | scripty | 2010-06-23 14:08:12 +1200 (Wed, 23 Jun 2010) | 1 line

SVN_SILENT made messages (.desktop file)
------------------------------------------------------------------------
