------------------------------------------------------------------------
r1231584 | pino | 2011-05-12 22:25:19 +1200 (Thu, 12 May 2011) | 6 lines

add missing i18n() calls

(adds 3 new strings)
CCMAIL: jr@jriddell.org
CCMAIL: kde-i18n-doc@kde.org

------------------------------------------------------------------------
r1232794 | scripty | 2011-05-20 02:38:44 +1200 (Fri, 20 May 2011) | 1 line

SVN_SILENT made messages (.desktop file)
------------------------------------------------------------------------
r1233260 | scripty | 2011-05-24 02:06:44 +1200 (Tue, 24 May 2011) | 1 line

SVN_SILENT made messages (.desktop file)
------------------------------------------------------------------------
