------------------------------------------------------------------------
r1179300 | scripty | 2010-09-25 14:50:37 +1200 (Sat, 25 Sep 2010) | 1 line

SVN_SILENT made messages (.desktop file)
------------------------------------------------------------------------
