------------------------------------------------------------------------
r953015 | mlaurent | 2009-04-13 08:40:57 +0000 (Mon, 13 Apr 2009) | 3 lines

Backport:
fix enable/disable line

------------------------------------------------------------------------
r955142 | mlaurent | 2009-04-17 06:53:19 +0000 (Fri, 17 Apr 2009) | 3 lines

Backport:
not necessary to install it, already installed by gnome system tools

------------------------------------------------------------------------
r956530 | scripty | 2009-04-20 07:42:16 +0000 (Mon, 20 Apr 2009) | 1 line

SVN_SILENT made messages (.desktop file)
------------------------------------------------------------------------
